<svg width="16" height="16" viewBox="0 0 16 16" fill="none" xmlns="http://www.w3.org/2000/svg">
<g opacity="0.32" clip-path="url(#clip0)">
<path d="M14.6194 13.4953L13.474 11.5873C12.946 10.7067 12.6667 9.69869 12.6667 8.67134V7C12.6667 4.42734 10.5727 2.33334 8.00001 2.33334C5.42736 2.33334 3.33335 4.42734 3.33335 7V8.67134C3.33335 9.69869 3.05401 10.7067 2.52601 11.5873L1.38067 13.4953C1.31867 13.598 1.31732 13.7267 1.37601 13.8307C1.43536 13.9353 1.54667 14 1.66667 14H14.3333C14.4533 14 14.5647 13.9354 14.624 13.8307C14.6827 13.7267 14.6814 13.598 14.6194 13.4953ZM2.25535 13.3333L3.09735 11.93C3.68801 10.946 4.00001 9.81934 4.00001 8.67134V7C4.00001 4.794 5.79401 3 8.00001 3C10.206 3 12 4.794 12 7V8.67134C12 9.81934 12.312 10.946 12.902 11.93L13.7447 13.3333H2.25535Z" fill="#051023"/>
<path d="M7.99999 0C7.26464 0 6.66664 0.598 6.66664 1.33334V2.66669C6.66664 2.85066 6.81599 3 6.99999 3C7.18399 3 7.33333 2.85066 7.33333 2.66666V1.33334C7.33333 0.965344 7.63199 0.666687 7.99999 0.666687C8.36799 0.666687 8.66665 0.965344 8.66665 1.33334V2.66669C8.66665 2.85066 8.81599 3 8.99999 3C9.18399 3 9.33334 2.85066 9.33334 2.66666V1.33334C9.33334 0.598 8.73534 0 7.99999 0Z" fill="#051023"/>
<path d="M9.44265 13.498C9.34865 13.3393 9.1453 13.2873 8.98599 13.3787C8.82665 13.472 8.77334 13.6767 8.86665 13.8353C8.95331 13.9827 9.00065 14.1593 9.00065 14.3333C9.00065 14.8847 8.55199 15.3333 8.00065 15.3333C7.44931 15.3333 7.00065 14.8847 7.00065 14.3333C7.00065 14.1593 7.048 13.9827 7.13465 13.8353C7.22731 13.676 7.174 13.472 7.01531 13.3787C6.85466 13.2873 6.65197 13.3393 6.55866 13.498C6.41131 13.75 6.33331 14.0387 6.33331 14.3333C6.33334 15.2527 7.08065 16 8 16C8.91934 16 9.66665 15.2527 9.66799 14.3333C9.66799 14.0387 9.58999 13.75 9.44265 13.498Z" fill="#051023"/>
</g>
<defs>
<clipPath id="clip0">
<rect width="16" height="16" fill="white"/>
</clipPath>
</defs>
</svg>
