<svg width="24" height="17" viewBox="0 0 24 17" fill="none" xmlns="http://www.w3.org/2000/svg">
<g clip-path="url(#clip0)">
<path d="M23.6914 8.36167L10.8397 0.809156C10.6656 0.705283 10.4474 0.703344 10.2711 0.803552C10.0952 0.902253 9.98587 1.085 9.98411 1.28369V5.54268L1.15737 0.798165C0.982556 0.705068 0.770799 0.709162 0.599942 0.809156C0.429965 0.909364 0.325515 1.08909 0.324196 1.28369V16.3887C0.325515 16.5833 0.429965 16.7631 0.599942 16.8633C0.68724 16.913 0.786192 16.9398 0.887123 16.9404C0.981457 16.9408 1.07425 16.918 1.15737 16.8743L9.98411 12.1353V16.3943C9.98345 16.5937 10.0934 16.7775 10.2711 16.8743C10.4481 16.9719 10.6647 16.9697 10.8397 16.8689L23.6969 9.31613C23.869 9.21571 23.9739 9.03361 23.9728 8.83729C23.9715 8.64118 23.8644 8.46016 23.6914 8.36167ZM11.11 15.4123V11.1975C11.1086 11.0031 11.004 10.8231 10.834 10.7229C10.6634 10.6229 10.4514 10.6189 10.2768 10.7119L1.45005 15.4565V2.21596L10.2768 6.95487C10.4514 7.04818 10.6634 7.04387 10.834 6.94388C11.004 6.84367 11.1086 6.66394 11.11 6.46956V2.25453L22.3122 8.83621L11.11 15.4123Z" fill="white"/>
</g>
<defs>
<clipPath id="clip0">
<rect width="23.6486" height="16.2162" fill="white" transform="matrix(-1 0 0 1 23.9729 0.729797)"/>
</clipPath>
</defs>
</svg>
