<svg width="24" height="25" viewBox="0 0 24 25" fill="none" xmlns="http://www.w3.org/2000/svg">
<g clip-path="url(#clip0)">
<path d="M22.9088 12.3911L1.55381 0.110245C1.30292 -0.0337931 0.991683 -0.0368447 0.737638 0.102006C0.483593 0.240857 0.325921 0.500248 0.324341 0.781917V24.2187C0.326237 24.4943 0.476642 24.7488 0.720891 24.8907C0.966405 25.0307 1.27006 25.0365 1.52158 24.9062L22.8765 13.7503C23.1303 13.6151 23.2905 13.3597 23.2971 13.0798C23.3037 12.7997 23.1559 12.5375 22.9088 12.3911ZM1.95036 22.9065V2.157L20.8543 13.0316L1.95036 22.9065Z" fill="white"/>
</g>
<defs>
<clipPath id="clip0">
<rect width="22.973" height="25" fill="white" transform="translate(0.324341)"/>
</clipPath>
</defs>
</svg>
