<svg width="25" height="17" viewBox="0 0 25 17" fill="none" xmlns="http://www.w3.org/2000/svg">
<g clip-path="url(#clip0)">
<path d="M0.930302 8.36167L13.782 0.809156C13.9561 0.705283 14.1743 0.703344 14.3506 0.803552C14.5265 0.902253 14.6358 1.085 14.6376 1.28369V5.54268L23.4643 0.798165C23.6391 0.705068 23.8509 0.709162 24.0217 0.809156C24.1917 0.909364 24.2962 1.08909 24.2975 1.28369V16.3887C24.2962 16.5833 24.1917 16.7631 24.0217 16.8633C23.9344 16.913 23.8355 16.9398 23.7346 16.9404C23.6402 16.9408 23.5474 16.918 23.4643 16.8743L14.6376 12.1353V16.3943C14.6382 16.5937 14.5283 16.7775 14.3506 16.8743C14.1736 16.9719 13.957 16.9697 13.782 16.8689L0.924803 9.31613C0.752626 9.21571 0.647738 9.03361 0.648836 8.83729C0.650156 8.64118 0.757246 8.46016 0.930302 8.36167ZM13.5117 15.4123V11.1975C13.513 11.0031 13.6177 10.8231 13.7877 10.7229C13.9583 10.6229 14.1703 10.6189 14.3449 10.7119L23.1716 15.4565V2.21596L14.3449 6.95487C14.1703 7.04818 13.9583 7.04387 13.7877 6.94388C13.6177 6.84367 13.513 6.66394 13.5117 6.46956V2.25453L2.30947 8.83621L13.5117 15.4123Z" fill="white"/>
</g>
<defs>
<clipPath id="clip0">
<rect width="23.6486" height="16.2162" fill="white" transform="translate(0.648819 0.729797)"/>
</clipPath>
</defs>
</svg>
