<svg width="19" height="15" viewBox="0 0 19 15" fill="none" xmlns="http://www.w3.org/2000/svg">
<g clip-path="url(#clip0)">
<path fill-rule="evenodd" clip-rule="evenodd" d="M5.57479 0.746313L6.34905 0.0120239L8.92641 2.45637L6.34905 4.90071L5.57479 4.16642L6.83035 2.97567H3.22412C2.31688 2.97567 1.58143 3.67315 1.58143 4.53356V9.72656C1.58143 10.587 2.31688 11.2845 3.22412 11.2845H3.80563V12.3231H3.22412C1.71281 12.3213 0.488127 11.1599 0.486313 9.72656V4.53356C0.488127 3.10027 1.71281 1.93879 3.22412 1.93707H6.83035L5.57479 0.746313ZM15.2705 1.93707C16.7818 1.93879 18.0064 3.10027 18.0083 4.53356V9.72656C18.0064 11.1599 16.7818 12.3213 15.2705 12.3231H11.6642L12.9198 13.5138L12.1455 14.2481L9.56815 11.8038L12.1455 9.35941L12.9198 10.0937L11.6642 11.2845H15.2705C16.1777 11.2845 16.9131 10.587 16.9131 9.72656V4.53356C16.9131 3.67315 16.1777 2.97567 15.2705 2.97567H14.7229V1.93707H15.2705ZM12.5326 1.93707H13.6278V2.97567H12.5326V1.93707ZM10.3424 1.93707H11.4375V2.97567H10.3424V1.93707ZM7.05704 11.2845H8.15216V12.3231H7.05704V11.2845ZM4.8668 11.2845H5.96192V12.3231H4.8668V11.2845Z" fill="white"/>
</g>
<defs>
<clipPath id="clip0">
<rect width="17.5676" height="14.1892" fill="white" transform="translate(0.486313 0.0812378)"/>
</clipPath>
</defs>
</svg>
