<svg width="15" height="15" viewBox="0 0 15 15" fill="none" xmlns="http://www.w3.org/2000/svg">
<g clip-path="url(#clip0)">
<path d="M14.7308 4.54998L7.83081 0.096853C7.63017 -0.0326099 7.3698 -0.0326099 7.16916 0.096853L0.26916 4.54998C0.1011 4.65844 0 4.84207 0 5.03883V14.4138C0 14.7374 0.26862 14.9998 0.6 14.9998C0.77499 14.9998 13.9301 14.9998 14.4 14.9998C14.7314 14.9998 15 14.7374 15 14.4138V5.03883C15 4.84207 14.8989 4.65844 14.7308 4.54998ZM8.7 13.8279H6.3V10.3123H8.7V13.8279ZM13.8 13.8279H9.9V9.72633C9.9 9.40271 9.63138 9.14039 9.3 9.14039H5.7C5.36862 9.14039 5.1 9.40271 5.1 9.72633V13.8279H1.2V5.35391L7.5 1.28803L13.8 5.35391V13.8279Z" fill="white"/>
</g>
<defs>
<clipPath id="clip0">
<rect width="15" height="15" fill="white"/>
</clipPath>
</defs>
</svg>
